Are vehicles in Chicago susceptible targets of crime?
…
Compute \(\pi_j\) for each area.

district_counts <- df %>%
  group_by(District) %>%
  summarize(
    n = n(),                    # total incidents
    y = sum(arrest_numeric),    # arrests
    observed_rate = y/n
  ) %>%
  arrange(desc(n))

district_counts

# A tibble: 22 × 4
   District     n     y observed_rate
      <int> <int> <dbl>         <dbl>
 1       12   213     0        0     
 2        2   212     6        0.0283
 3        4   176     3        0.0170
 4        8   163     4        0.0245
 5        6   153     5        0.0327
 6       11   128    10        0.0781
 7        1   126     3        0.0238
 8       25   124     4        0.0323
 9        3   122     4        0.0328
10        9   103     3        0.0291
# ℹ 12 more rows
…
district_posteriors <- district_counts %>%
  mutate(
    alpha_post = alpha_prior + y,
    beta_post = beta_prior + n - y,
    
    posterior_mean = alpha_post / (alpha_post + beta_post),
    
    ci_lower = qbeta(0.025, alpha_post, beta_post),
    ci_upper = qbeta(0.975, alpha_post, beta_post)
  )

district_posteriors

# A tibble: 22 × 9
   District     n     y observed_rate alpha_post beta_post posterior_mean
      <int> <int> <dbl>         <dbl>      <dbl>     <dbl>          <dbl>
 1       12   213     0        0               2       231        0.00858
 2        2   212     6        0.0283          8       224        0.0345 
 3        4   176     3        0.0170          5       191        0.0255 
 4        8   163     4        0.0245          6       177        0.0328 
 5        6   153     5        0.0327          7       166        0.0405 
 6       11   128    10        0.0781         12       136        0.0811 
 7        1   126     3        0.0238          5       141        0.0342 
 8       25   124     4        0.0323          6       138        0.0417 
 9        3   122     4        0.0328          6       136        0.0423 
10        9   103     3        0.0291          5       118        0.0407 
# ℹ 12 more rows
# ℹ 2 more variables: ci_lower <dbl>, ci_upper <dbl>
…
